%YAML 1.1
%TAG !u! tag:unity3d.com,2011:
--- !u!114 &11400000
MonoBehaviour:
  m_ObjectHideFlags: 0
  m_CorrespondingSourceObject: {fileID: 0}
  m_PrefabInstance: {fileID: 0}
  m_PrefabAsset: {fileID: 0}
  m_GameObject: {fileID: 0}
  m_Enabled: 1
  m_EditorHideFlags: 0
  m_Script: {fileID: 11500000, guid: 3b9c25c4b4f38d84cbb4e5cdf585a636, type: 3}
  m_Name: TwoVideosPlaylist
  m_EditorClassIdentifier: 
  videos:
  - {fileID: 32900000, guid: 4bba6d3cd8414e34682d33d38e172373, type: 3}
  - {fileID: 32900000, guid: 0b7d6abe93b2cc9488ec3e5326dd14cb, type: 3}
